Chapter 3 Everyday iterations | Everyday-R: Practical R for Data Science
…
This returns a matrix, as apply() is typically used for an array or a matrix. The one downside with apply() is that the user cannot define what form the output will be in. The side effect of this is that I’ve had to exclude the first column because it contains characters. Running cbind() afterwards to concatenate mtcars[1,] can do the job, though it’s cumbersome. Therefore, it’s often not advisable to run apply() on a dataframe or a tibble. A better method is the dplyr::mutate() solution:

mtcars %>% mutate(across(where(is.numeric), ~ .x/2))

## # A tibble: 32 × 12
##    CAR      mpg   cyl  disp    hp  drat    wt  qsec
##    <chr>  <dbl> <dbl> <dbl> <dbl> <dbl> <dbl> <dbl>
##  1 Mazda… 10.5      3  80    55    1.95  1.31  8.23
##  2 Mazda… 10.5      3  80    55    1.95  1.44  8.51
##  3 Datsu… 11.4      2  54    46.5  1.92  1.16  9.30
##  4 Horne… 10.7      3 129    55    1.54  1.61  9.72
##  5 Horne…  9.35     4 180    87.5  1.58  1.72  8.51
##  6 Valia…  9.05     3 112.   52.5  1.38  1.73 10.1 
##  7 Duste…  7.15     4 180   122.   1.60  1.78  7.92
##  8 Merc … 12.2      2  73.4  31    1.84  1.60 10   
##  9 Merc … 11.4      2  70.4  47.5  1.96  1.58 11.4 
## 10 Merc …  9.6      3  83.8  61.5  1.96  1.72  9.15
## # ℹ 22 more rows
## # ℹ 4 more variables: vs <dbl>, am <dbl>,
## #   gear <dbl>, carb <dbl>

Note that instead of writing out function(x) x/2 I’m using the ~ .x notation which is often used in context of purrr:map(). Either works.

The purrr:map() solution to this is:

mtcars %>% map_if(is.numeric, ~ .x/2) %>% as_tibble()

## # A tibble: 32 × 12
##    CAR      mpg   cyl  disp    hp  drat    wt  qsec
##    <chr>  <dbl> <dbl> <dbl> <dbl> <dbl> <dbl> <dbl>
##  1 Mazda… 10.5      3  80    55    1.95  1.31  8.23
##  2 Mazda… 10.5      3  80    55    1.95  1.44  8.51
##  3 Datsu… 11.4      2  54    46.5  1.92  1.16  9.30
##  4 Horne… 10.7      3 129    55    1.54  1.61  9.72
##  5 Horne…  9.35     4 180    87.5  1.58  1.72  8.51
##  6 Valia…  9.05     3 112.   52.5  1.38  1.73 10.1 
##  7 Duste…  7.15     4 180   122.   1.60  1.78  7.92
##  8 Merc … 12.2      2  73.4  31    1.84  1.60 10   
##  9 Merc … 11.4      2  70.4  47.5  1.96  1.58 11.4 
## 10 Merc …  9.6      3  83.8  61.5  1.96  1.72  9.15
## # ℹ 22 more rows
## # ℹ 4 more variables: vs <dbl>, am <dbl>,
## #   gear <dbl>, carb <dbl>

Writing a for loop for something like this would have been less elegant:

mtcars2 <- mtcars
for (i in 2:ncol(mtcars2)){
  mtcars2[,i] <- mtcars2[,i]/2
}
mtcars2

## # A tibble: 32 × 12
##    CAR      mpg   cyl  disp    hp  drat    wt  qsec
##    <chr>  <dbl> <dbl> <dbl> <dbl> <dbl> <dbl> <dbl>
##  1 Mazda… 10.5      3  80    55    1.95  1.31  8.23
##  2 Mazda… 10.5      3  80    55    1.95  1.44  8.51
##  3 Datsu… 11.4      2  54    46.5  1.92  1.16  9.30
##  4 Horne… 10.7      3 129    55    1.54  1.61  9.72
##  5 Horne…  9.35     4 180    87.5  1.58  1.72  8.51
##  6 Valia…  9.05     3 112.   52.5  1.38  1.73 10.1 
##  7 Duste…  7.15     4 180   122.   1.60  1.78  7.92
##  8 Merc … 12.2      2  73.4  31    1.84  1.60 10   
##  9 Merc … 11.4      2  70.4  47.5  1.96  1.58 11.4 
## 10 Merc …  9.6      3  83.8  61.5  1.96  1.72  9.15
## # ℹ 22 more rows
## # ℹ 4 more variables: vs <dbl>, am <dbl>,
## #   gear <dbl>, carb <dbl>
…
