Chapter 8 Digression I: Gradient descent with R | Everyday-R: Practical R for Data Science
…
res <- lapply(res, function(x) as.data.frame(t(x))) %>% bind_rows()
colnames(res) <- c('theta0', 'theta1')

loss <- res %>% as_tibble() %>% rowwise() %>%
  summarise(mse = cost_function(theta0, theta1, data$x, data$y))

res <- res %>% bind_cols(loss) %>%
  mutate(iteration = seq(1, 100)) %>% as_tibble()

res

## # A tibble: 100 × 4
##    theta0 theta1    mse iteration
##     <dbl>  <dbl>  <dbl>     <int>
##  1   0     0     18985.         1
##  2   1.01  0.382 13725.         2
##  3   1.82  0.685 10385.         3
##  4   2.46  0.925  8265.         4
##  5   2.98  1.12   6918.         5
##  6   3.39  1.27   6064.         6
##  7   3.71  1.39   5521.         7
##  8   3.97  1.48   5176.         8
##  9   4.18  1.55   4958.         9
## 10   4.35  1.61   4819.        10
## # ℹ 90 more rows
…
