Chapter 9 Digression II: Survival analysis with R | Everyday-R: Practical R for Data Science
…
The Kaplan-Meier estimator is fit using survfit() on a survival object created by Surv(). Here, standard formula notation applies as we saw before.

s <- survfit(Surv(futime, fustat) ~ rx, data = df)
s

## Call: survfit(formula = Surv(futime, fustat) ~ rx, data = df)
## 
##       n events median 0.95LCL 0.95UCL
## rx=1 13      7    638     268      NA
## rx=2 13      5     NA     475      NA

library(broom)
tidy(s)

## # A tibble: 26 × 9
##     time n.risk n.event n.censor estimate std.error conf.high
##    <dbl>  <dbl>   <dbl>    <dbl>    <dbl>     <dbl>     <dbl>
##  1    59     13       1        0    0.923    0.0801     1    
##  2   115     12       1        0    0.846    0.118      1    
##  3   156     11       1        0    0.769    0.152      1    
##  4   268     10       1        0    0.692    0.185      0.995
##  5   329      9       1        0    0.615    0.219      0.946
##  6   431      8       1        0    0.538    0.257      0.891
##  7   448      7       0        1    0.538    0.257      0.891
##  8   477      6       0        1    0.538    0.257      0.891
##  9   638      5       1        0    0.431    0.340      0.840
## 10   803      4       0        1    0.431    0.340      0.840
## # ℹ 16 more rows
## # ℹ 2 more variables: conf.low <dbl>, strata <chr>
…
