Chapter 6 Everyday ML: Classification | Everyday-R: Practical R for Data Science
…
Of course, dimensionality reduction is possible, though this transforms the data and the original meaning of the features is lost. An alternative method is feature selection - selecting important features and discarding unimportant ones. This relates specifically to the concept of feature importance in the previous section.

caret offers a simple way to rank features when built-in feature importance measures are not available. This is by using univariate filters, which are essentially fitting n individual models (where n is the number of features) against the target label and ranking them based on their statistical significance.

anoveScores() is used for classification models and fits an ANOVA for each feature against the label. The null hypothesis here assumes the mean values for each feature is equal for all labels. gamScores() is used for regression models and uses a generalized additive model to look for functional relationships between the features and the label. In both cases, each feature in the predictor set is passed individually.

For this part I will use the Sonar dataset from mlbench.

library(mlbench)
data(Sonar)
Sonar <- as_tibble(Sonar)
Sonar

## # A tibble: 208 × 61
##        V1     V2     V3     V4     V5     V6     V7     V8     V9
##     <dbl>  <dbl>  <dbl>  <dbl>  <dbl>  <dbl>  <dbl>  <dbl>  <dbl>
##  1 0.02   0.0371 0.0428 0.0207 0.0954 0.0986 0.154  0.160  0.311 
##  2 0.0453 0.0523 0.0843 0.0689 0.118  0.258  0.216  0.348  0.334 
##  3 0.0262 0.0582 0.110  0.108  0.0974 0.228  0.243  0.377  0.560 
##  4 0.01   0.0171 0.0623 0.0205 0.0205 0.0368 0.110  0.128  0.0598
##  5 0.0762 0.0666 0.0481 0.0394 0.059  0.0649 0.121  0.247  0.356 
##  6 0.0286 0.0453 0.0277 0.0174 0.0384 0.099  0.120  0.183  0.210 
##  7 0.0317 0.0956 0.132  0.141  0.167  0.171  0.0731 0.140  0.208 
##  8 0.0519 0.0548 0.0842 0.0319 0.116  0.0922 0.103  0.0613 0.146 
##  9 0.0223 0.0375 0.0484 0.0475 0.0647 0.0591 0.0753 0.0098 0.0684
## 10 0.0164 0.0173 0.0347 0.007  0.0187 0.0671 0.106  0.0697 0.0962
## # ℹ 198 more rows
## # ℹ 52 more variables: V10 <dbl>, V11 <dbl>, V12 <dbl>, V13 <dbl>,
## #   V14 <dbl>, V15 <dbl>, V16 <dbl>, V17 <dbl>, V18 <dbl>,
## #   V19 <dbl>, V20 <dbl>, V21 <dbl>, V22 <dbl>, V23 <dbl>,
## #   V24 <dbl>, V25 <dbl>, V26 <dbl>, V27 <dbl>, V28 <dbl>,
## #   V29 <dbl>, V30 <dbl>, V31 <dbl>, V32 <dbl>, V33 <dbl>,
## #   V34 <dbl>, V35 <dbl>, V36 <dbl>, V37 <dbl>, V38 <dbl>, …
…
The output for each feature is the p-value for the whole model F-test. These can be ranked to find the features with the greatest degree of relationship with the target labels:

aov_res <- aov_res %>% rownames_to_column(var = 'Var') %>%
  as_tibble() %>% rename(pVal = aov_res) %>% arrange(aov_res)

aov_res

## # A tibble: 60 × 2
##    Var       pVal
##    <chr>    <dbl>
##  1 V11   6.59e-11
##  2 V12   4.64e- 9
##  3 V49   1.96e- 7
##  4 V10   4.60e- 7
##  5 V45   5.30e- 7
##  6 V48   1.19e- 6
##  7 V9    2.20e- 6
##  8 V13   4.22e- 6
##  9 V46   7.16e- 6
## 10 V47   9.49e- 6
## # ℹ 50 more rows
…
