Chapter 2 Everyday data wrangling | Everyday-R
…
Suppose there exists a test dataset and the user is tasked with proving their proficiency in exploratory data analysis (EDA). Alternatively, the user may be handed a piece of data (e.g., maybe an Excel sheet) and is asked to run some preliminary analysis. Prior to jumping straight into EDA and statistical modeling, the user must be able to transform the original data into a desirable format. This includes, but is not limited to, missing data imputation, scalar transformation, feature selection, group aggregation, and data filtering. The following notebook outlines the fundamentals of data wrangling, using practical base R and tidyverse solutions interchangeably.

2.1 Renaming column headers

Suppose a 32 x 11 dataset mtcars where rownames correspond to the car model.

data(mtcars)
mtcars <- mtcars %>% as_tibble(rownames = 'CAR')

Renaming column headers is straight forward with dplyr::rename:

mtcars %>% rename_with(toupper)

## # A tibble: 32 x 12
##    CAR                 MPG   CYL  DISP    HP  DRAT    WT  QSEC    VS    AM  GEAR  CARB
##    <chr>             <dbl> <dbl> <dbl> <dbl> <dbl> <dbl> <dbl> <dbl> <dbl> <dbl> <dbl>
##  1 Mazda RX4          21       6  160    110  3.9   2.62  16.5     0     1     4     4
##  2 Mazda RX4 Wag      21       6  160    110  3.9   2.88  17.0     0     1     4     4
##  3 Datsun 710         22.8     4  108     93  3.85  2.32  18.6     1     1     4     1
##  4 Hornet 4 Drive     21.4     6  258    110  3.08  3.22  19.4     1     0     3     1
##  5 Hornet Sportabout  18.7     8  360    175  3.15  3.44  17.0     0     0     3     2
##  6 Valiant            18.1     6  225    105  2.76  3.46  20.2     1     0     3     1
##  7 Duster 360         14.3     8  360    245  3.21  3.57  15.8     0     0     3     4
##  8 Merc 240D          24.4     4  147.    62  3.69  3.19  20       1     0     4     2
##  9 Merc 230           22.8     4  141.    95  3.92  3.15  22.9     1     0     4     2
## 10 Merc 280           19.2     6  168.   123  3.92  3.44  18.3     1     0     4     4
## # … with 22 more rows

You can pass any function within rename_with() to alter the column headers:

mtcars %>% rename_with(function(x) paste0(x, "_1"), .cols = -1)

## # A tibble: 32 x 12
##    CAR               mpg_1 cyl_1 disp_1  hp_1 drat_1  wt_1 qsec_1  vs_1  am_1 gear_1 carb_1
##    <chr>             <dbl> <dbl>  <dbl> <dbl>  <dbl> <dbl>  <dbl> <dbl> <dbl>  <dbl>  <dbl>
##  1 Mazda RX4          21       6   160    110   3.9   2.62   16.5     0     1      4      4
##  2 Mazda RX4 Wag      21       6   160    110   3.9   2.88   17.0     0     1      4      4
##  3 Datsun 710         22.8     4   108     93   3.85  2.32   18.6     1     1      4      1
##  4 Hornet 4 Drive     21.4     6   258    110   3.08  3.22   19.4     1     0      3      1
##  5 Hornet Sportabout  18.7     8   360    175   3.15  3.44   17.0     0     0      3      2
##  6 Valiant            18.1     6   225    105   2.76  3.46   20.2     1     0      3      1
##  7 Duster 360         14.3     8   360    245   3.21  3.57   15.8     0     0      3      4
##  8 Merc 240D          24.4     4   147.    62   3.69  3.19   20       1     0      4      2
##  9 Merc 230           22.8     4   141.    95   3.92  3.15   22.9     1     0      4      2
## 10 Merc 280           19.2     6   168.   123   3.92  3.44   18.3     1     0      4      4
## # … with 22 more rows
…
aggregate(mpg ~ cyl, data = mtcars, FUN = mean)

##   cyl      mpg
## 1   4 26.66364
## 2   6 19.74286
## 3   8 15.10000

2.3 Data transformation

Sometimes it’s useful to transform numeric columns:

mtcars %>% mutate(mpg = mpg*2)

## # A tibble: 32 x 12
##    CAR                 mpg   cyl  disp    hp  drat    wt  qsec    vs    am  gear  carb
##    <chr>             <dbl> <dbl> <dbl> <dbl> <dbl> <dbl> <dbl> <dbl> <dbl> <dbl> <dbl>
##  1 Mazda RX4          42       6  160    110  3.9   2.62  16.5     0     1     4     4
##  2 Mazda RX4 Wag      42       6  160    110  3.9   2.88  17.0     0     1     4     4
##  3 Datsun 710         45.6     4  108     93  3.85  2.32  18.6     1     1     4     1
##  4 Hornet 4 Drive     42.8     6  258    110  3.08  3.22  19.4     1     0     3     1
##  5 Hornet Sportabout  37.4     8  360    175  3.15  3.44  17.0     0     0     3     2
##  6 Valiant            36.2     6  225    105  2.76  3.46  20.2     1     0     3     1
##  7 Duster 360         28.6     8  360    245  3.21  3.57  15.8     0     0     3     4
##  8 Merc 240D          48.8     4  147.    62  3.69  3.19  20       1     0     4     2
##  9 Merc 230           45.6     4  141.    95  3.92  3.15  22.9     1     0     4     2
## 10 Merc 280           38.4     6  168.   123  3.92  3.44  18.3     1     0     4     4
## # … with 22 more rows

Using across() allows for conditional transformation and keep the old columns, while renaming the new columns:

mtcars %>% 
  mutate(across(where(is.numeric), function(x) x*2, .names = "double_{col}"))

## # A tibble: 32 x 23
##    CAR            mpg   cyl  disp    hp  drat    wt  qsec    vs    am  gear  carb double_mpg
##    <chr>        <dbl> <dbl> <dbl> <dbl> <dbl> <dbl> <dbl> <dbl> <dbl> <dbl> <dbl>      <dbl>
##  1 Mazda RX4     21       6  160    110  3.9   2.62  16.5     0     1     4     4       42  
##  2 Mazda RX4 W…  21       6  160    110  3.9   2.88  17.0     0     1     4     4       42  
##  3 Datsun 710    22.8     4  108     93  3.85  2.32  18.6     1     1     4     1       45.6
##  4 Hornet 4 Dr…  21.4     6  258    110  3.08  3.22  19.4     1     0     3     1       42.8
##  5 Hornet Spor…  18.7     8  360    175  3.15  3.44  17.0     0     0     3     2       37.4
##  6 Valiant       18.1     6  225    105  2.76  3.46  20.2     1     0     3     1       36.2
##  7 Duster 360    14.3     8  360    245  3.21  3.57  15.8     0     0     3     4       28.6
##  8 Merc 240D     24.4     4  147.    62  3.69  3.19  20       1     0     4     2       48.8
##  9 Merc 230      22.8     4  141.    95  3.92  3.15  22.9     1     0     4     2       45.6
## 10 Merc 280      19.2     6  168.   123  3.92  3.44  18.3     1     0     4     4       38.4
## # … with 22 more rows, and 10 more variables: double_cyl <dbl>, double_disp <dbl>,
## #   double_hp <dbl>, double_drat <dbl>, double_wt <dbl>, double_qsec <dbl>,
## #   double_vs <dbl>, double_am <dbl>, double_gear <dbl>, double_carb <dbl>

You can overwrite the existing columns completely; also keep in mind that you can pass any function within across() as such:

mtcars %>% mutate(across(c(mpg, disp), function(x) x*3))

## # A tibble: 32 x 12
##    CAR                 mpg   cyl  disp    hp  drat    wt  qsec    vs    am  gear  carb
##    <chr>             <dbl> <dbl> <dbl> <dbl> <dbl> <dbl> <dbl> <dbl> <dbl> <dbl> <dbl>
##  1 Mazda RX4          63       6  480    110  3.9   2.62  16.5     0     1     4     4
##  2 Mazda RX4 Wag      63       6  480    110  3.9   2.88  17.0     0     1     4     4
##  3 Datsun 710         68.4     4  324     93  3.85  2.32  18.6     1     1     4     1
##  4 Hornet 4 Drive     64.2     6  774    110  3.08  3.22  19.4     1     0     3     1
##  5 Hornet Sportabout  56.1     8 1080    175  3.15  3.44  17.0     0     0     3     2
##  6 Valiant            54.3     6  675    105  2.76  3.46  20.2     1     0     3     1
##  7 Duster 360         42.9     8 1080    245  3.21  3.57  15.8     0     0     3     4
##  8 Merc 240D          73.2     4  440.    62  3.69  3.19  20       1     0     4     2
##  9 Merc 230           68.4     4  422.    95  3.92  3.15  22.9     1     0     4     2
## 10 Merc 280           57.6     6  503.   123  3.92  3.44  18.3     1     0     4     4
## # … with 22 more rows

Iterating across the columns using purrr::modify instead:

mtcars %>% modify_if(is.numeric, ~ .x*3)

## # A tibble: 32 x 12
##    CAR                 mpg   cyl  disp    hp  drat    wt  qsec    vs    am  gear  carb
##    <chr>             <dbl> <dbl> <dbl> <dbl> <dbl> <dbl> <dbl> <dbl> <dbl> <dbl> <dbl>
##  1 Mazda RX4          63      18  480    330 11.7   7.86  49.4     0     3    12    12
##  2 Mazda RX4 Wag      63      18  480    330 11.7   8.62  51.1     0     3    12    12
##  3 Datsun 710         68.4    12  324    279 11.6   6.96  55.8     3     3    12     3
##  4 Hornet 4 Drive     64.2    18  774    330  9.24  9.64  58.3     3     0     9     3
##  5 Hornet Sportabout  56.1    24 1080    525  9.45 10.3   51.1     0     0     9     6
##  6 Valiant            54.3    18  675    315  8.28 10.4   60.7     3     0     9     3
##  7 Duster 360         42.9    24 1080    735  9.63 10.7   47.5     0     0     9    12
##  8 Merc 240D          73.2    12  440.   186 11.1   9.57  60       3     0    12     6
##  9 Merc 230           68.4    12  422.   285 11.8   9.45  68.7     3     0    12     6
## 10 Merc 280           57.6    18  503.   369 11.8  10.3   54.9     3     0    12    12
## # … with 22 more rows

2.4 Joining and separating character columns

For the CAR column comprised of strings, you can separate the individual strings into multiple columns; the extra = 'merge' argument tells the function to separate the string based on the first instance of ” ” and merge the rest:

mtcars %>% separate(CAR, c('Brand', 'Model'), sep = " ", extra = 'merge')

## # A tibble: 32 x 13
##    Brand   Model        mpg   cyl  disp    hp  drat    wt  qsec    vs    am  gear  carb
##    <chr>   <chr>      <dbl> <dbl> <dbl> <dbl> <dbl> <dbl> <dbl> <dbl> <dbl> <dbl> <dbl>
##  1 Mazda   RX4         21       6  160    110  3.9   2.62  16.5     0     1     4     4
##  2 Mazda   RX4 Wag     21       6  160    110  3.9   2.88  17.0     0     1     4     4
##  3 Datsun  710         22.8     4  108     93  3.85  2.32  18.6     1     1     4     1
##  4 Hornet  4 Drive     21.4     6  258    110  3.08  3.22  19.4     1     0     3     1
##  5 Hornet  Sportabout  18.7     8  360    175  3.15  3.44  17.0     0     0     3     2
##  6 Valiant <NA>        18.1     6  225    105  2.76  3.46  20.2     1     0     3     1
##  7 Duster  360         14.3     8  360    245  3.21  3.57  15.8     0     0     3     4
##  8 Merc    240D        24.4     4  147.    62  3.69  3.19  20       1     0     4     2
##  9 Merc    230         22.8     4  141.    95  3.92  3.15  22.9     1     0     4     2
## 10 Merc    280         19.2     6  168.   123  3.92  3.44  18.3     1     0     4     4
## # … with 22 more rows

Combining multiple tidyverse verbs using the pipe %>%:

mtcars %>% separate(CAR, c('Brand', 'Model'), sep = " ", extra = 'merge') %>%
  group_by(Brand) %>% summarise(count = n(), mean_mpg = mean(mpg)) %>%
  arrange(desc(count))

## # A tibble: 22 x 3
##    Brand    count mean_mpg
##    <chr>    <int>    <dbl>
##  1 Merc         7     19.0
##  2 Fiat         2     29.8
##  3 Hornet       2     20.0
##  4 Mazda        2     21  
##  5 Toyota       2     27.7
##  6 AMC          1     15.2
##  7 Cadillac     1     10.4
##  8 Camaro       1     13.3
##  9 Chrysler     1     14.7
## 10 Datsun       1     22.8
## # … with 12 more rows
…
mtcars$Brand <- unlist(
  lapply(strsplit(mtcars$CAR, split = ' '), function(x) x[1])
)
mtcars$Model <- unlist(
  lapply(strsplit(mtcars$CAR, split = ' '), function(x) x[2])
)

The opposite of separate() is unite() which combines columns into a single column:

data(iris)
iris <- as_tibble(iris)
iris %>% unite('Petal.Dimensions', c(`Petal.Length`, `Petal.Width`),
               sep = " x ", remove = FALSE)

## # A tibble: 150 x 6
##    Sepal.Length Sepal.Width Petal.Dimensions Petal.Length Petal.Width Species
##           <dbl>       <dbl> <chr>                   <dbl>       <dbl> <fct>  
##  1          5.1         3.5 1.4 x 0.2                 1.4         0.2 setosa 
##  2          4.9         3   1.4 x 0.2                 1.4         0.2 setosa 
##  3          4.7         3.2 1.3 x 0.2                 1.3         0.2 setosa 
##  4          4.6         3.1 1.5 x 0.2                 1.5         0.2 setosa 
##  5          5           3.6 1.4 x 0.2                 1.4         0.2 setosa 
##  6          5.4         3.9 1.7 x 0.4                 1.7         0.4 setosa 
##  7          4.6         3.4 1.4 x 0.3                 1.4         0.3 setosa 
##  8          5           3.4 1.5 x 0.2                 1.5         0.2 setosa 
##  9          4.4         2.9 1.4 x 0.2                 1.4         0.2 setosa 
## 10          4.9         3.1 1.5 x 0.1                 1.5         0.1 setosa 
## # … with 140 more rows
…
mtcars %>% filter(between(mpg, 18, 20))

## # A tibble: 5 x 12
##   CAR                 mpg   cyl  disp    hp  drat    wt  qsec    vs    am  gear  carb
##   <chr>             <dbl> <dbl> <dbl> <dbl> <dbl> <dbl> <dbl> <dbl> <dbl> <dbl> <dbl>
## 1 Hornet Sportabout  18.7     8  360    175  3.15  3.44  17.0     0     0     3     2
## 2 Valiant            18.1     6  225    105  2.76  3.46  20.2     1     0     3     1
## 3 Merc 280           19.2     6  168.   123  3.92  3.44  18.3     1     0     4     4
## 4 Pontiac Firebird   19.2     8  400    175  3.08  3.84  17.0     0     0     3     2
## 5 Ferrari Dino       19.7     6  145    175  3.62  2.77  15.5     0     1     5     6

mtcars %>% filter(cyl %in% c(6, 8))

## # A tibble: 21 x 12
##    CAR                 mpg   cyl  disp    hp  drat    wt  qsec    vs    am  gear  carb
##    <chr>             <dbl> <dbl> <dbl> <dbl> <dbl> <dbl> <dbl> <dbl> <dbl> <dbl> <dbl>
##  1 Mazda RX4          21       6  160    110  3.9   2.62  16.5     0     1     4     4
##  2 Mazda RX4 Wag      21       6  160    110  3.9   2.88  17.0     0     1     4     4
##  3 Hornet 4 Drive     21.4     6  258    110  3.08  3.22  19.4     1     0     3     1
##  4 Hornet Sportabout  18.7     8  360    175  3.15  3.44  17.0     0     0     3     2
##  5 Valiant            18.1     6  225    105  2.76  3.46  20.2     1     0     3     1
##  6 Duster 360         14.3     8  360    245  3.21  3.57  15.8     0     0     3     4
##  7 Merc 280           19.2     6  168.   123  3.92  3.44  18.3     1     0     4     4
##  8 Merc 280C          17.8     6  168.   123  3.92  3.44  18.9     1     0     4     4
##  9 Merc 450SE         16.4     8  276.   180  3.07  4.07  17.4     0     0     3     3
## 10 Merc 450SL         17.3     8  276.   180  3.07  3.73  17.6     0     0     3     3
## # … with 11 more rows

Alternatively, in base R, using which():

mtcars[which(mtcars$mpg > 18 & mtcars$mpg < 20),]
mtcars[which(mtcars$cyl %in% c(6,8)),]

2.6 Subsetting columns based on strings

Subsetting columns typically involves using square brackets [ ] in base R, but can be done easily with dplyr::select; select() supports multiple helper functions such as starts_with(), ends_with(), and match().

mtcars %>% select(contains('m'))

## # A tibble: 32 x 2
##      mpg    am
##    <dbl> <dbl>
##  1  21       1
##  2  21       1
##  3  22.8     1
##  4  21.4     0
##  5  18.7     0
##  6  18.1     0
##  7  14.3     0
##  8  24.4     0
##  9  22.8     0
## 10  19.2     0
## # … with 22 more rows

mtcars %>% select(starts_with('m'), ends_with('c'))

## # A tibble: 32 x 2
##      mpg  qsec
##    <dbl> <dbl>
##  1  21    16.5
##  2  21    17.0
##  3  22.8  18.6
##  4  21.4  19.4
##  5  18.7  17.0
##  6  18.1  20.2
##  7  14.3  15.8
##  8  24.4  20  
##  9  22.8  22.9
## 10  19.2  18.3
## # … with 22 more rows

Using regex, with the anchors ^ and $:

mtcars %>% select(matches('^m'), matches('c$'))

## # A tibble: 32 x 2
##      mpg  qsec
##    <dbl> <dbl>
##  1  21    16.5
##  2  21    17.0
##  3  22.8  18.6
##  4  21.4  19.4
##  5  18.7  17.0
##  6  18.1  20.2
##  7  14.3  15.8
##  8  24.4  20  
##  9  22.8  22.9
## 10  19.2  18.3
## # … with 22 more rows

Alternatively, in base R and regex:

mtcars[,grepl('^m|c$', names(mtcars))]

## # A tibble: 32 x 2
##      mpg  qsec
##    <dbl> <dbl>
##  1  21    16.5
##  2  21    17.0
##  3  22.8  18.6
##  4  21.4  19.4
##  5  18.7  17.0
##  6  18.1  20.2
##  7  14.3  15.8
##  8  24.4  20  
##  9  22.8  22.9
## 10  19.2  18.3
## # … with 22 more rows

2.7 Long and wide data formats

Transforming datasets into long/wide formats is a typical task in EDA, and this can be done using tidyr:

mtcars_long <- mtcars %>% pivot_longer(-1, names_to = 'Metric', values_to = 'Values')
mtcars_long

## # A tibble: 352 x 3
##    CAR       Metric Values
##    <chr>     <chr>   <dbl>
##  1 Mazda RX4 mpg     21   
##  2 Mazda RX4 cyl      6   
##  3 Mazda RX4 disp   160   
##  4 Mazda RX4 hp     110   
##  5 Mazda RX4 drat     3.9 
##  6 Mazda RX4 wt       2.62
##  7 Mazda RX4 qsec    16.5 
##  8 Mazda RX4 vs       0   
##  9 Mazda RX4 am       1   
## 10 Mazda RX4 gear     4   
## # … with 342 more rows

Having the dataset in this long format allows us to create visualizations such as the boxplot much easier.

Pivoting the long format back to a wide format as also straightforward with tidyr:

mtcars_wide <- mtcars_long %>% 
  pivot_wider(names_from = 'Metric', values_from = 'Values')
mtcars_wide

## # A tibble: 32 x 12
##    CAR                 mpg   cyl  disp    hp  drat    wt  qsec    vs    am  gear  carb
##    <chr>             <dbl> <dbl> <dbl> <dbl> <dbl> <dbl> <dbl> <dbl> <dbl> <dbl> <dbl>
##  1 Mazda RX4          21       6  160    110  3.9   2.62  16.5     0     1     4     4
##  2 Mazda RX4 Wag      21       6  160    110  3.9   2.88  17.0     0     1     4     4
##  3 Datsun 710         22.8     4  108     93  3.85  2.32  18.6     1     1     4     1
##  4 Hornet 4 Drive     21.4     6  258    110  3.08  3.22  19.4     1     0     3     1
##  5 Hornet Sportabout  18.7     8  360    175  3.15  3.44  17.0     0     0     3     2
##  6 Valiant            18.1     6  225    105  2.76  3.46  20.2     1     0     3     1
##  7 Duster 360         14.3     8  360    245  3.21  3.57  15.8     0     0     3     4
##  8 Merc 240D          24.4     4  147.    62  3.69  3.19  20       1     0     4     2
##  9 Merc 230           22.8     4  141.    95  3.92  3.15  22.9     1     0     4     2
## 10 Merc 280           19.2     6  168.   123  3.92  3.44  18.3     1     0     4     4
## # … with 22 more rows
…
Note that using data.table returns a data.table object (due to the setDT() function), which differs from the tibble we’ve been using for packages within tidyverse. There are some advantages to using data.table instead, especially when working with very large datasets. For the sake of this book I will mostly use base R and tidyverse, other than exceptional cases.

2.8 Trimming strings

Trimming character columns, then re-encoding them as factors:

iris %>% mutate(Species = strtrim(Species, 3)) %>%
  mutate(Species = factor(Species, levels = c('set', 'ver', 'vir')))

## # A tibble: 150 x 5
##    Sepal.Length Sepal.Width Petal.Length Petal.Width Species
##           <dbl>       <dbl>        <dbl>       <dbl> <fct>  
##  1          5.1         3.5          1.4         0.2 set    
##  2          4.9         3            1.4         0.2 set    
##  3          4.7         3.2          1.3         0.2 set    
##  4          4.6         3.1          1.5         0.2 set    
##  5          5           3.6          1.4         0.2 set    
##  6          5.4         3.9          1.7         0.4 set    
##  7          4.6         3.4          1.4         0.3 set    
##  8          5           3.4          1.5         0.2 set    
##  9          4.4         2.9          1.4         0.2 set    
## 10          4.9         3.1          1.5         0.1 set    
## # … with 140 more rows
…
