Chapter 5 Everyday exploratory data analysis | Everyday-R
…
Now it’s time to check the distribution of the features. For this I want to make a boxplot, but for that I need to reshape the dataset first. As seen in Chapter 1, tidyr::pivot_longer() can be used to convert the data into long format.

dfm <- df %>% select(-c(medv, chas)) %>%
  pivot_longer(everything(), names_to = 'Feature', values_to = 'Value')

dfm

## # A tibble: 6,072 × 2
##    Feature     Value
##    <chr>       <dbl>
##  1 crim      0.00632
##  2 zn       18      
##  3 indus     2.31   
##  4 nox       0.538  
##  5 rm        6.58   
##  6 age      65.2    
##  7 dis       4.09   
##  8 rad       1      
##  9 tax     296      
## 10 ptratio  15.3    
## # … with 6,062 more rows
…
It looks like the scales for the features are not consistent. This is common in real-life data and for most ML algorithms, features need to be preprocessed. I will cover this in the future chapters, but in brief, we can calculate the z-score as such for each predictor:

zs <- function(x){
  (x - mean(x)) / sd(x)
}

df_s <- df %>% select(-c(medv, chas)) %>%
  mutate(across(everything(), zs))

df_s

## # A tibble: 506 × 12
##      crim      zn  indus    nox     rm     age   dis
##     <dbl>   <dbl>  <dbl>  <dbl>  <dbl>   <dbl> <dbl>
##  1 -0.419  0.285  -1.29  -0.144  0.413 -0.120  0.140
##  2 -0.417 -0.487  -0.593 -0.740  0.194  0.367  0.557
##  3 -0.417 -0.487  -0.593 -0.740  1.28  -0.266  0.557
##  4 -0.416 -0.487  -1.31  -0.834  1.02  -0.809  1.08 
##  5 -0.412 -0.487  -1.31  -0.834  1.23  -0.511  1.08 
##  6 -0.417 -0.487  -1.31  -0.834  0.207 -0.351  1.08 
##  7 -0.410  0.0487 -0.476 -0.265 -0.388 -0.0702 0.838
##  8 -0.403  0.0487 -0.476 -0.265 -0.160  0.978  1.02 
##  9 -0.396  0.0487 -0.476 -0.265 -0.930  1.12   1.09 
## 10 -0.400  0.0487 -0.476 -0.265 -0.399  0.615  1.33 
## # … with 496 more rows, and 5 more variables:
## #   rad <dbl>, tax <dbl>, ptratio <dbl>, b <dbl>,
## #   lstat <dbl>
…
5.2 Workflow 2: dates and ordinal data

For this part I will pull the Ozone data from mlbench which has the following three columns as the first three: integers coding for the month, integers coding for the day of the month, and integers coding for the day of the week, with Monday coded as the first day (i.e., 1 = Mon., 2 = Tues.,…). The rest of the columns correspond to various weather measurements as continuous values such as the temperature, humidity, and visibility.

data('Ozone')
df <- as_tibble(Ozone)
df

## # A tibble: 366 × 13
##    V1    V2    V3       V4    V5    V6    V7    V8
##    <fct> <fct> <fct> <dbl> <dbl> <dbl> <dbl> <dbl>
##  1 1     1     4         3  5480     8    20    NA
##  2 1     2     5         3  5660     6    NA    38
##  3 1     3     6         3  5710     4    28    40
##  4 1     4     7         5  5700     3    37    45
##  5 1     5     1         5  5760     3    51    54
##  6 1     6     2         6  5720     4    69    35
##  7 1     7     3         4  5790     6    19    45
##  8 1     8     4         4  5790     3    25    55
##  9 1     9     5         6  5700     3    73    41
## 10 1     10    6         7  5700     3    59    44
## # … with 356 more rows, and 5 more variables:
## #   V9 <dbl>, V10 <dbl>, V11 <dbl>, V12 <dbl>,
## #   V13 <dbl>

It’s not necessary in this case, but since we are working with dates let’s make the date labels easier to read. Using lubridate I will convert the month labels into a factor with character levels. Then using base R’s weekdays() I will convert the days of the week to characters as well.

library(lubridate)
df <- df %>% 
  mutate(V1 = lubridate::month(as.numeric(V1), 
                               label = TRUE)) %>%
  mutate(V3 = weekdays(.Date(4:10))[df$V3])

df

## # A tibble: 366 × 13
##    V1    V2    V3           V4    V5    V6    V7    V8
##    <ord> <fct> <chr>     <dbl> <dbl> <dbl> <dbl> <dbl>
##  1 Jan   1     Thursday      3  5480     8    20    NA
##  2 Jan   2     Friday        3  5660     6    NA    38
##  3 Jan   3     Saturday      3  5710     4    28    40
##  4 Jan   4     Sunday        5  5700     3    37    45
##  5 Jan   5     Monday        5  5760     3    51    54
##  6 Jan   6     Tuesday       6  5720     4    69    35
##  7 Jan   7     Wednesday     4  5790     6    19    45
##  8 Jan   8     Thursday      4  5790     3    25    55
##  9 Jan   9     Friday        6  5700     3    73    41
## 10 Jan   10    Saturday      7  5700     3    59    44
## # … with 356 more rows, and 5 more variables:
## #   V9 <dbl>, V10 <dbl>, V11 <dbl>, V12 <dbl>,
## #   V13 <dbl>
…
df %>% group_by(V1, V3) %>%
  summarise(mean_hum_LAX = mean(V7, na.rm=T))

## `summarise()` has grouped output by 'V1'. You can
## override using the `.groups` argument.

## # A tibble: 84 × 3
## # Groups:   V1 [12]
##    V1    V3        mean_hum_LAX
##    <ord> <fct>            <dbl>
##  1 Jan   Monday            56  
##  2 Jan   Tuesday           35  
##  3 Jan   Wednesday         19  
##  4 Jan   Thursday          21.8
##  5 Jan   Friday            44.8
##  6 Jan   Saturday          41.6
##  7 Jan   Sunday            46.8
##  8 Feb   Monday            58.2
##  9 Feb   Tuesday           69.2
## 10 Feb   Wednesday         63.2
## # … with 74 more rows
…
